…
### Use `anti-join` to find who do not have corresponding records

    bakers_missing <- results |>
      anti_join(bakers, by = c("baker", "series"))
    bakers_missing

    ## # A tibble: 1,136 × 5
    ##    series episode baker     technical result
    ##     <dbl>   <dbl> <chr>         <dbl> <chr> 
    ##  1      1       1 Annetha           2 IN    
    ##  2      1       1 David             3 IN    
    ##  3      1       1 Edd               1 IN    
    ##  4      1       1 Jasminder        NA IN    
    ##  5      1       1 Jonathan          9 IN    
    ##  6      1       1 Louise           NA IN    
    ##  7      1       1 Miranda           8 IN    
    ##  8      1       1 Ruth             NA IN    
    ##  9      1       1 Lea              10 OUT   
    ## 10      1       1 Mark             NA OUT   
    ## # ℹ 1,126 more rows

    bakes_missing <- results |>
      anti_join(bakes, by = c("baker", "series"))
    bakes_missing

    ## # A tibble: 258 × 5
    ##    series episode baker  technical result    
    ##     <dbl>   <dbl> <chr>      <dbl> <chr>     
    ##  1      2       1 Joanne        11 IN        
    ##  2      2       2 Joanne        10 IN        
    ##  3      2       3 Joanne         1 IN        
    ##  4      2       4 Joanne         8 IN        
    ##  5      2       5 Joanne         6 IN        
    ##  6      2       6 Joanne         1 STAR BAKER
    ##  7      2       7 Joanne         3 IN        
    ##  8      2       8 Joanne         1 WINNER    
    ##  9      9       1 Antony        12 IN        
    ## 10      9       1 Briony         2 IN        
    ## # ℹ 248 more rows
…
